<?xml version="1.0" encoding="utf-8"?>
<!-- Generator: Adobe Illustrator 19.0.0, SVG Export Plug-In . SVG Version: 6.00 Build 0)  -->
<svg version="1.1" id="Layer_1" xmlns="http://www.w3.org/2000/svg" xmlns:xlink="http://www.w3.org/1999/xlink" x="0px" y="0px"
	 viewBox="0 0 250 255.3" style="enable-background:new 0 0 250 255.3;" xml:space="preserve">
<style type="text/css">
	.st0{clip-path:url(#XMLID_391_);}
	.st1{fill:#00529C;}
</style>
<g id="XMLID_400_">
	<defs>
		<path id="XMLID_412_" d="M125,250.7c-32.1,0-62.2-12.8-84.9-35.9C17.5,191.6,5,160.8,5,128c0-32.8,12.5-63.6,35.1-86.7
			C62.8,18.1,92.9,5.4,125,5.4c32.1,0,62.2,12.8,84.9,35.9c22.7,23.2,35.1,54,35.1,86.7c0,32.8-12.5,63.6-35.1,86.7
			C187.2,237.9,157.1,250.7,125,250.7z"/>
	</defs>
	<defs>
		<path id="XMLID_402_" d="M125,255.7c-33.4,0-64.8-13.3-88.4-37.4C13,194.2,0,162.1,0,128C0,94,13,61.9,36.6,37.8
			C60.2,13.7,91.6,0.4,125,0.4c33.4,0,64.8,13.3,88.4,37.4C237,61.9,250,94,250,128c0,34.1-13,66.1-36.6,90.2
			C189.8,242.4,158.4,255.7,125,255.7z M125,10.4c-30.7,0-59.6,12.2-81.3,34.4C22,67,10,96.6,10,128c0,31.5,12,61,33.7,83.2
			c21.7,22.2,50.6,34.4,81.3,34.4c30.7,0,59.6-12.2,81.3-34.4C228,189.1,240,159.5,240,128c0-31.4-12-61-33.7-83.2
			C184.6,22.6,155.7,10.4,125,10.4z"/>
	</defs>
	<use xlink:href="#XMLID_412_"  style="overflow:visible;fill:#FFFFFF;"/>
	<use xlink:href="#XMLID_402_"  style="overflow:visible;fill:#00529C;"/>
	<clipPath id="XMLID_391_">
		<use xlink:href="#XMLID_412_"  style="overflow:visible;"/>
	</clipPath>
	<clipPath id="XMLID_393_" class="st0">
		<use xlink:href="#XMLID_402_"  style="overflow:visible;"/>
	</clipPath>
</g>
<g id="XMLID_389_">
	<g id="XMLID_398_">
		<path id="XMLID_386_" class="st1" d="M197,162.2H68.4c-10.9,0-20.9-10-20.9-21.2v-14.5c0-10.7,9.6-19.2,20.9-19.2H197
			c2.2,0,4,1.8,4,4s-1.8,4-4,4H68.4c-6.8,0-12.9,4.9-12.9,11.2V141c0,6.7,6.5,13.2,12.9,13.2H197c2.2,0,4,1.8,4,4
			S199.2,162.2,197,162.2z"/>
	</g>
	<g id="XMLID_396_">
		<path id="XMLID_397_" class="st1" d="M192.7,157.5c-0.6,0-1.3-0.3-1.7-0.9c-15.8-23.4-0.1-43.8,0.1-44c0.7-0.9,1.9-1,2.8-0.3
			c0.9,0.7,1,1.9,0.3,2.8c-0.6,0.8-14.1,18.4,0.1,39.3c0.6,0.9,0.4,2.2-0.5,2.8C193.5,157.4,193.1,157.5,192.7,157.5z"/>
	</g>
	<g id="XMLID_394_">
		<path id="XMLID_359_" class="st1" d="M186,143.2h-37c-0.6,0-1-0.4-1-1s0.4-1,1-1h37c0.6,0,1,0.4,1,1S186.6,143.2,186,143.2z"/>
	</g>
	<g id="XMLID_392_">
		<path id="XMLID_358_" class="st1" d="M185,134.2H82c-0.6,0-1-0.4-1-1s0.4-1,1-1h103c0.6,0,1,0.4,1,1S185.6,134.2,185,134.2z"/>
	</g>
	<g id="XMLID_390_">
		<path id="XMLID_357_" class="st1" d="M185,127.2h-77c-0.6,0-1-0.4-1-1s0.4-1,1-1h77c0.6,0,1,0.4,1,1S185.6,127.2,185,127.2z"/>
	</g>
</g>
</svg>
