<?xml version="1.0" encoding="UTF-8" standalone="no"?>
<svg
   xmlns:dc="http://purl.org/dc/elements/1.1/"
   xmlns:cc="http://creativecommons.org/ns#"
   xmlns:rdf="http://www.w3.org/1999/02/22-rdf-syntax-ns#"
   xmlns:svg="http://www.w3.org/2000/svg"
   xmlns="http://www.w3.org/2000/svg"
   viewBox="0 0 53.037998 58.668751"
   height="58.668751"
   width="53.037998"
   xml:space="preserve"
   version="1.1"
   id="svg2"><metadata
     id="metadata8"><rdf:RDF><cc:Work
         rdf:about=""><dc:format>image/svg+xml</dc:format><dc:type
           rdf:resource="http://purl.org/dc/dcmitype/StillImage" /><dc:title></dc:title></cc:Work></rdf:RDF></metadata><defs
     id="defs6"><clipPath
       id="clipPath18"
       clipPathUnits="userSpaceOnUse"><path
         id="path20"
         d="m 0,221 1080,0 0,608 L 0,829 0,221 Z" /></clipPath><clipPath
       id="clipPath26"
       clipPathUnits="userSpaceOnUse"><path
         id="path28"
         d="m -18.8389,785 1119.6689,0 0,-574 -1119.6689,0 0,574 z" /></clipPath><clipPath
       id="clipPath544"
       clipPathUnits="userSpaceOnUse"><path
         id="path546"
         d="m 0,1920 1080,0 L 1080,0 0,0 0,1920 Z" /></clipPath><clipPath
       id="clipPath1212"
       clipPathUnits="userSpaceOnUse"><path
         id="path1214"
         d="m 582.909,1050.33 0,0 0,0 0,0 z" /></clipPath><clipPath
       id="clipPath1238"
       clipPathUnits="userSpaceOnUse"><path
         id="path1240"
         d="m 0,1920 1080,0 L 1080,0 0,0 0,1920 Z" /></clipPath><clipPath
       id="clipPath1274"
       clipPathUnits="userSpaceOnUse"><path
         id="path1276"
         d="m 0,1920 1080,0 L 1080,0 0,0 0,1920 Z" /></clipPath><clipPath
       id="clipPath1332"
       clipPathUnits="userSpaceOnUse"><path
         id="path1334"
         d="m 0,1920 1080,0 L 1080,0 0,0 0,1920 Z" /></clipPath><clipPath
       id="clipPath1340"
       clipPathUnits="userSpaceOnUse"><path
         id="path1342"
         d="m 1080,-362 -1080,0 0,312 1080,0 0,-312 z" /></clipPath></defs><g
     transform="matrix(1.25,0,0,-1.25,-1150.9597,156.18433)"
     id="g10"><g
       id="g5577"><path
         id="path1312"
         style="fill:#ffffff;fill-opacity:1;fill-rule:nonzero;stroke:none"
         d="m 923.76772,78.012458 c -0.768,0 -1.535,0.293 -2.121,0.879 -1.172,1.171 -1.172,3.071 0,4.243 l 16.519,16.518 c 1.007,1.007002 1.007,2.647002 -10e-4,3.654002 l -16.518,16.519 c -1.172,1.172 -1.172,3.071 0,4.243 1.172,1.172 3.07,1.172 4.242,0 l 16.52,-16.52 c 3.345,-3.347 3.345,-8.792002 10e-4,-12.138002 l -16.521,-16.52 c -0.586,-0.585 -1.353,-0.878 -2.121,-0.878" /><path
         id="path1316"
         style="fill:#ffffff;fill-opacity:1;fill-rule:nonzero;stroke:none"
         d="m 942.04412,78.012458 c -0.768,0 -1.535,0.293 -2.121,0.879 -1.172,1.171 -1.172,3.071 0,4.242 l 16.518,16.519 c 0.489,0.488002 0.757,1.137002 0.757,1.827002 0,0.69 -0.268,1.339 -0.757,1.827 l -16.518,16.519 c -1.172,1.172 -1.172,3.071 0,4.243 1.172,1.171 3.07,1.172 4.242,0 l 16.519,-16.52 c 1.621,-1.621 2.514,-3.776 2.514,-6.069 0,-2.293002 -0.893,-4.448002 -2.514,-6.070002 l -16.519,-16.518 c -0.586,-0.586 -1.353,-0.879 -2.121,-0.879" /></g></g></svg>